15:11:47.392 INFO - Selenium build info: version: '3.6.0', revision: '6fbf3ec767'
15:11:47.393 INFO - Launching a standalone Selenium Server
2017-10-09 15:11:47.448:INFO::main: Logging initialized @924ms to org.seleniumhq.jetty9.util.log.StdErrLog
15:11:47.573 INFO - Driver class not found: com.opera.core.systems.OperaDriver
15:11:47.663 INFO - Driver provider class org.openqa.selenium.safari.SafariDriver registration is skipped:
 registration capabilities Capabilities [{browserName=safari, version=, platform=MAC}] does not match the current platform VISTA
15:11:47.736 INFO - Using the passthrough mode handler
2017-10-09 15:11:47.794:INFO:osjs.Server:main: jetty-9.4.5.v20170502
2017-10-09 15:11:47.872:WARN:osjs.SecurityHandler:main: ServletContext@o.s.j.s.ServletContextHandler@10366b4{/,null,STARTING} has uncovered http methods for path: /
2017-10-09 15:11:47.882:INFO:osjsh.ContextHandler:main: Started o.s.j.s.ServletContextHandler@10366b4{/,null,AVAILABLE}
2017-10-09 15:11:48.035:INFO:osjs.AbstractConnector:main: Started ServerConnector@1205a84{HTTP/1.1,[http/1.1]}{0.0.0.0:5555}
2017-10-09 15:11:48.041:INFO:osjs.Server:main: Started @1517ms
15:11:48.045 INFO - Selenium Server is up and running
2017-10-09 15:11:49.668:INFO:osjshC.ROOT:qtp31115012-9: org.openqa.selenium.remote.server.WebDriverServlet-1fa1d9b: Initialising WebDriverServlet
15:11:49.732 INFO - Found handler: org.openqa.selenium.remote.server.commandhandler.NoSessionHandler@1966973
15:11:49.740 INFO - /session/null/screenshot: Executing GET on /session/null/screenshot (handler: NoSessionHandler)
15:11:49.964 INFO - Found handler: org.openqa.selenium.remote.server.commandhandler.NoSessionHandler@1a210a9
15:11:49.965 INFO - /session/null/screenshot: Executing GET on /session/null/screenshot (handler: NoSessionHandler)
15:11:50.020 INFO - Found handler: org.openqa.selenium.remote.server.commandhandler.NoSessionHandler@626dd7
15:11:50.021 INFO - /session/null/screenshot: Executing GET on /session/null/screenshot (handler: NoSessionHandler)
15:11:50.073 INFO - Found handler: org.openqa.selenium.remote.server.commandhandler.NoSessionHandler@1e9e489
15:11:50.074 INFO - /session/null/screenshot: Executing GET on /session/null/screenshot (handler: NoSessionHandler)
15:11:50.103 INFO - Found handler: org.openqa.selenium.remote.server.commandhandler.NoSessionHandler@1e6bffc
15:11:50.108 INFO - /session/null/screenshot: Executing GET on /session/null/screenshot (handler: NoSessionHandler)
15:11:50.157 INFO - Found handler: org.openqa.selenium.remote.server.commandhandler.NoSessionHandler@9e2a46
15:11:50.158 INFO - /session/null/screenshot: Executing GET on /session/null/screenshot (handler: NoSessionHandler)
15:11:50.248 INFO - Found handler: org.openqa.selenium.remote.server.commandhandler.NoSessionHandler@b91963
15:11:50.251 INFO - /session/null/screenshot: Executing GET on /session/null/screenshot (handler: NoSessionHandler)
